{74d0e5db-b326-4dae-a6b2-445b9de1836e}
{A2563E55-3BEC-3828-8D67-E5E8B9E8B675};Microsoft Visual C++ 2015 x86 Minimum Runtime - 14.0.23026
{BE960C1C-7BAD-3DE6-8B1A-2616FE532845};Microsoft Visual C++ 2015 x86 Additional Runtime - 14.0.23026
{23daf363-3020-4059-b3ae-dc4ad39fed19}
{65AD78AD-D23D-3A1E-9305-3AE65CD522C2};Microsoft Visual C++ 2015 x86 Minimum Runtime - 14.0.23506
{1045AB6F-6151-3634-8C2C-EE308AA1A6A7};Microsoft Visual C++ 2015 x86 Additional Runtime - 14.0.23506
{0AD72BC2-5EFC-3E47-B91C-1A17BC46F754};Microsoft Visual C++ 2015 x86 Minimum Runtime - 14.0.23816
{9D8E5E84-4F57-32DD-94D5-E8C89115901D};Microsoft Visual C++ 2015 x86 Additional Runtime - 14.0.23816
{B5FC62F5-A367-37A5-9FD2-A6E137C0096F};Microsoft Visual C++ 2015 x86 Minimum Runtime - 14.0.23918
{BD9CFD69-EB91-354E-9C98-D439E6091932};Microsoft Visual C++ 2015 x86 Additional Runtime - 14.0.23918
{1116743A-7091-3136-9D33-6B05E1C7D4B7};Microsoft Visual C++ 2015 x86 Minimum Runtime - 14.0.24109
{A6708426-FB18-383F-AD22-17BA439369BD};Microsoft Visual C++ 2015 x86 Additional Runtime - 14.0.24109
{06AE3BCC-7612-39D3-9F3B-B6601D877D02};Microsoft Visual C++ 2015 x86 Minimum Runtime - 14.0.24123
{03AC7A79-F8AF-38FC-9DA0-98DAB4F4B1CD};Microsoft Visual C++ 2015 x86 Additional Runtime - 14.0.24123
{8FD71E98-EE44-3844-9DAD-9CB0BBBC603C};Microsoft Visual C++ 2015 x86 Minimum Runtime - 14.0.24210
{D8C8656B-0BD8-39C3-B741-F889B7C144E5};Microsoft Visual C++ 2015 x86 Additional Runtime - 14.0.24210
{37B55901-995A-3650-80B1-BBFD047E2911};Microsoft Visual C++ 2015 x86 Minimum Runtime - 14.0.24212
{844ECB74-9B63-3D5C-958C-30BD23F19EE4};Microsoft Visual C++ 2015 x86 Additional Runtime - 14.0.24212
{BBF2AC74-720C-3CB3-8291-5E34039232FA};Microsoft Visual C++ 2015 x86 Minimum Runtime - 14.0.24215
{69BCE4AC-9572-3271-A2FB-9423BDA36A43};Microsoft Visual C++ 2015 x86 Additional Runtime - 14.0.24215
{E8FA32DC-301E-32C5-8B4E-811C3B62CC4B};Microsoft Visual C++ 2015 x86 Minimum Runtime - 14.0.24406
{16A41EF3-F204-3338-8EAC-623EE6BE05CC};Microsoft Visual C++ 2015 x86 Additional Runtime - 14.0.24406
{7B82F823-A226-3463-B438-AF4DDDE2B810};Microsoft Visual C++ 2015 x86 Minimum Runtime - 14.0.24516
{B4EB15A2-6582-346E-8501-B6E907F23B80};Microsoft Visual C++ 2015 x86 Additional Runtime - 14.0.24516
{C6CDA568-CD91-3CA0-9EDE-DAD98A13D6E1};Microsoft Visual C++ 2017 x86 Minimum Runtime - 14.10.25008
{E6222D59-608C-3018-B86B-69BD241ACDE5};Microsoft Visual C++ 2017 x86 Additional Runtime - 14.10.25008
{582EA838-9199-3518-A05C-DB09462F68EC};Microsoft Visual C++ 2017 x86 Minimum Runtime - 14.10.25017
{68306422-7C57-373F-8860-D26CE4BA2A15};Microsoft Visual C++ 2017 x86 Additional Runtime - 14.10.25017
{029DA848-1A80-34D3-BFC1-A6447BFC8E7F};Microsoft Visual C++ 2017 x86 Minimum Runtime - 14.11.25325
{568CD07E-0824-3EEB-AEC1-8FD51F3C85CF};Microsoft Visual C++ 2017 x86 Additional Runtime - 14.11.25325
{6E894015-A182-3C1E-A7D2-3032CB2E1D43};Microsoft Visual C++ 2017 x86 Minimum Runtime - 14.12.25711
{8FDCF95F-4756-34F4-9DA2-D708E7FAC504};Microsoft Visual C++ 2017 x86 Additional Runtime - 14.12.25711
{828952EB-5572-3666-8CA9-000B6CE79350};Microsoft Visual C++ 2017 x86 Minimum Runtime - 14.12.25810
{7FED75A1-600C-394B-8376-712E2A8861F2};Microsoft Visual C++ 2017 x86 Additional Runtime - 14.12.25810
{5C045B7F-E561-4794-91F8-C6CDA0893107}
{8F271F6C-6E7B-3D0A-951B-6E7B694D78BD};Microsoft Visual C++ 2017 x86 Minimum Runtime - 14.13.26020
{895D5198-C5DB-375E-86AB-133F4DAA9FE2};Microsoft Visual C++ 2017 x86 Additional Runtime - 14.13.26020
{51996F19-65FD-3341-B2DC-FEB0F42F0780};Microsoft Visual C++ 2017 x86 Minimum Runtime - 14.14.26329
{0E092595-6A28-3B71-AEC2-84634591FB11};Microsoft Visual C++ 2017 x86 Additional Runtime - 14.14.26329
{644544A0-318A-344C-964C-4DBE2FB5F864};Microsoft Visual C++ 2017 x86 Minimum Runtime - 14.14.26405
{2BCACFA1-2BE1-373C-9051-76A9661D9FC4};Microsoft Visual C++ 2017 x86 Additional Runtime - 14.14.26405
{2019B6A0-8533-4A04-AC0E-B2C10BDB9841}
{7753EC39-3039-3629-98BE-447C5D869C09};Microsoft Visual C++ 2017 x86 Minimum Runtime - 14.14.26429
{6F0267F3-7467-350D-A8C8-33B72E3658D8};Microsoft Visual C++ 2017 x86 Additional Runtime - 14.14.26429
{454B10E6-1FD0-30F4-9126-A789C0057A25};Microsoft Visual C++ 2017 x86 Minimum Runtime - 14.15.26608
{B3CFBDF4-99DA-3E11-996E-1FE2C76913EF};Microsoft Visual C++ 2017 x86 Additional Runtime - 14.15.26608
{682FFE28-A2A5-3D53-B29B-279B6B81EFC2};Microsoft Visual C++ 2017 x86 Minimum Runtime - 14.15.26626
{4F9AE4A1-7D93-34FC-B1A4-42E9CE8D8997};Microsoft Visual C++ 2017 x86 Additional Runtime - 14.15.26626
{39E15475-23F2-345D-8977-B5DC47A94E26};Microsoft Visual C++ 2017 x86 Minimum Runtime - 14.15.26706
{2757496A-3E74-320A-B007-36120A9F126D};Microsoft Visual C++ 2017 x86 Additional Runtime - 14.15.26706
{7B77DE7F-5219-435E-9CE1-FC77F1D4CCAD};Microsoft Visual C++ 2017 X86 Minimum Runtime - 14.16.27012
{DD6BC8D7-4582-4677-BAAC-4AB933E6C315};Microsoft Visual C++ 2017 X86 Additional Runtime - 14.16.27012
{5EEFCEFB-E5F7-4C82-99A5-813F04AA4FBD};Microsoft Visual C++ 2017 X86 Minimum Runtime - 14.16.27024
{7258184A-EC44-4B1A-A7D3-68D85A35BFD0};Microsoft Visual C++ 2017 X86 Additional Runtime - 14.16.27024
{D5AEE36E-4771-4F65-BDB6-8C59077BFBE4};Microsoft Visual C++ 2017 X86 Minimum Runtime - 14.16.27033
{88D1025F-45D0-45C6-9EDB-379C2EE07AD7};Microsoft Visual C++ 2017 X86 Additional Runtime - 14.16.27033
{7E80EF77-6C9D-4FC4-BB83-3361D4E22F25};Microsoft Visual C++ 2017 X86 Minimum Runtime - 14.20.27305
{506D37C5-D2EC-454A-B3F7-2FE98EABE8E8};Microsoft Visual C++ 2017 X86 Additional Runtime - 14.20.27305
{B5B0C77C-3A25-4331-8D9D-9549BA177867};Microsoft Visual C++ 2017 X86 Minimum Runtime - 14.20.27323
{C8625EA8-C0DB-4F43-8752-AB8280799481};Microsoft Visual C++ 2017 X86 Additional Runtime - 14.20.27323
{9BE0126E-8EBE-45B9-93F7-9C5DFAF264CD};Microsoft Visual C++ 2017 X86 Minimum Runtime - 14.20.27404
{4FA33553-B884-48A2-BB78-A4539CE3D9DF};Microsoft Visual C++ 2017 X86 Additional Runtime - 14.20.27404
{B96F6FA1-530F-42F1-9F71-33C583716340};Microsoft Visual C++ 2019 X86 Minimum Runtime - 14.20.27508
{C9DE51F8-7846-4621-815D-E8AFD3E3C0FF};Microsoft Visual C++ 2019 X86 Additional Runtime - 14.20.27508
{F6C6A4E0-04DF-4CA5-8840-3D70BB22F182};Microsoft Visual C++ 2019 X86 Minimum Runtime - 14.20.27607
{27EAB76B-3C3E-45B8-8849-F3B378424242};Microsoft Visual C++ 2019 X86 Additional Runtime - 14.20.27607
{DD19556B-120B-4E54-89F0-63587C1EF3A5};Microsoft Visual C++ 2019 X86 Minimum Runtime - 14.21.27619
{2F4972A7-E7A6-411D-BBD6-8EF139FDD8C1};Microsoft Visual C++ 2019 X86 Additional Runtime - 14.21.27619
{19F7E289-17B8-44EC-A099-927507B6F739};Microsoft Visual C++ 2019 X86 Minimum Runtime - 14.21.27702
{213668DB-2263-4E2D-ABB8-487FD539130E};Microsoft Visual C++ 2019 X86 Additional Runtime - 14.21.27702
{8F9B5724-DE3E-47F4-A1E5-FF8F2F776C33};Microsoft Visual C++ 2019 X86 Minimum Runtime - 14.22.27706
{77189E12-8804-4E0B-8A21-5FA54C512D84};Microsoft Visual C++ 2019 X86 Additional Runtime - 14.22.27706
{440E0BEF-63E9-4F99-8492-3522BA4CC61D};Microsoft Visual C++ 2019 X86 Minimum Runtime - 14.22.27724
{67BB9BB3-D228-4BBE-83C2-12E2E59C41EA};Microsoft Visual C++ 2019 X86 Additional Runtime - 14.22.27724
{2000C0AB-6E95-49CA-8F0E-F7074B99F6D4};Microsoft Visual C++ 2019 X86 Minimum Runtime - 14.22.27807
{BAA140AF-7964-4DB8-80EC-BF66BDC6412F};Microsoft Visual C++ 2019 X86 Additional Runtime - 14.22.27807
{1E6FC929-567E-4D22-9206-C5B83F0A21B9};Microsoft Visual C++ 2019 X86 Minimum Runtime - 14.22.27821
{3BDE80F7-7EC9-448E-8160-4ADA0CDA8879};Microsoft Visual C++ 2019 X86 Additional Runtime - 14.22.27821
{00AC3934-26B4-406E-807C-1692AC7329EC};Microsoft Visual C++ 2019 X86 Minimum Runtime - 14.23.27820
{86BE78D9-65A1-4E69-86F8-C1F5281F8553};Microsoft Visual C++ 2019 X86 Additional Runtime - 14.23.27820
{2E72FA1F-BADB-4337-B8AE-F7C17EC57D1D};Microsoft Visual C++ 2019 X86 Minimum Runtime - 14.24.28127
{EAC73207-74BD-4B13-AACF-8C0E751FA4E8};Microsoft Visual C++ 2019 X86 Additional Runtime - 14.24.28127
{2BC3BD4D-FABA-4394-93C7-9AC82A263FE2};Microsoft Visual C++ 2019 X86 Minimum Runtime - 14.25.28508
{0FA68574-690B-4B00-89AA-B28946231449};Microsoft Visual C++ 2019 X86 Additional Runtime - 14.25.28508
{880D0543-8230-4F28-9DA3-E5AF3BC83DAA};Microsoft Visual C++ 2019 X86 Minimum Runtime - 14.26.28619
{CAABBECC-E009-45A1-8BF6-7B05D71D21B4};Microsoft Visual C++ 2019 X86 Additional Runtime - 14.26.28619
{31C9EB3A-5F0C-49E7-8E6C-D404E48F433D};Microsoft Visual C++ 2019 X86 Minimum Runtime - 14.26.28720
{2F69FB2B-2C48-491C-B249-22C1BDCE1117};Microsoft Visual C++ 2019 X86 Additional Runtime - 14.26.28720
{4A336F95-FDA8-427B-8BFD-FB3001F1DE22};Microsoft Visual C++ 2019 X86 Minimum Runtime - 14.26.28808
{205CA6C8-5FF7-4270-A856-0AD21508147F};Microsoft Visual C++ 2019 X86 Additional Runtime - 14.26.28808
{D1D81698-AF9C-41A9-BF21-50FC65D8100B};Microsoft Visual C++ 2019 X86 Minimum Runtime - 14.27.28823
{004BE856-CADE-4DAF-ACF2-DCF8E6CF88F8};Microsoft Visual C++ 2019 X86 Additional Runtime - 14.27.28823
{89E82748-04E5-4C97-9804-3894D49CD41D};Microsoft Visual C++ 2019 X86 Minimum Runtime - 14.27.28914
{E17942F2-C4EB-4E8C-B9FF-D38FFC1E9A30};Microsoft Visual C++ 2019 X86 Additional Runtime - 14.27.28914
{BAF206DB-965F-4935-A71F-C87A056BD821};Microsoft Visual C++ 2019 X86 Minimum Runtime - 14.27.29009
{77B8AB64-5021-44E0-A1A9-67DB58628703};Microsoft Visual C++ 2019 X86 Additional Runtime - 14.27.29009
{E2C131AD-D30F-4D67-ACE9-B3D485E84DA8};Microsoft Visual C++ 2019 X86 Minimum Runtime - 14.27.29016
{5CD4E357-9ED6-42AC-B654-F1FC21DD60C9};Microsoft Visual C++ 2019 X86 Additional Runtime - 14.27.29016
{42163859-095F-469B-A0B0-7748500570D1};Microsoft Visual C++ 2019 X86 Minimum Runtime - 14.27.29112
{526B224D-6B70-4A2A-9D03-CE304B5125D6};Microsoft Visual C++ 2019 X86 Additional Runtime - 14.27.29112
{8A033FFE-963E-4D02-B4EF-AA5B3B6CCF95};Microsoft Visual C++ 2019 X86 Minimum Runtime - 14.27.29114
{76A5D94F-36F0-4A8A-A1BA-62F8F4F6A306};Microsoft Visual C++ 2019 X86 Additional Runtime - 14.27.29114
{E9353720-9CC3-4BF6-B2E8-E84D5C51D492};Microsoft Visual C++ 2019 X86 Minimum Runtime - 14.28.29115
{35F1230A-54F9-45B5-BC6B-82E063B7C6EB};Microsoft Visual C++ 2019 X86 Additional Runtime - 14.28.29115
{FE617816-57EB-4A28-BC84-D7612A251A41};Microsoft Visual C++ 2019 X86 Minimum Runtime - 14.28.29213
{0E85B768-4DEF-4B6C-BACC-CAE9F45CA9E0};Microsoft Visual C++ 2019 X86 Additional Runtime - 14.28.29213
{9F9B2989-4618-42D2-B083-35BF36564062};Microsoft Visual C++ 2019 X86 Minimum Runtime - 14.28.29231
{4748666E-75AB-4884-BB72-BE776513AC4A};Microsoft Visual C++ 2019 X86 Additional Runtime - 14.28.29231
{D93BFF14-9D9E-4765-9FC8-FC723FDC4FDE};Microsoft Visual C++ 2019 X86 Minimum Runtime - 14.28.29301
{36FDAD1D-C347-4C46-8DE5-83F7DF72E8F1};Microsoft Visual C++ 2019 X86 Additional Runtime - 14.28.29301
{EE2E15BB-54C8-4DB0-B1F3-026E3C166991};Microsoft Visual C++ 2019 X86 Minimum Runtime - 14.28.29325
{B40FC85D-2B12-46E0-B950-E5B27E348793};Microsoft Visual C++ 2019 X86 Additional Runtime - 14.28.29325
{0D01A812-82A1-481F-8546-8E28E976F8DF};Microsoft Visual C++ 2019 X86 Minimum Runtime - 14.28.29334
{14C49FC8-3E9B-4F29-8526-26629B5CF30B};Microsoft Visual C++ 2019 X86 Additional Runtime - 14.28.29334
{CAA58D4B-E030-422E-8012-904C3371E68F};Microsoft Visual C++ 2019 X86 Minimum Runtime - 14.28.29515
{FBF00404-5D88-4198-AC62-982857C1F1BC};Microsoft Visual C++ 2019 X86 Additional Runtime - 14.28.29515
{45AE5805-550F-4D48-A10C-A30AEAA67E7F};Microsoft Visual C++ 2019 X86 Minimum Runtime - 14.28.29617
{2AB55CA8-9227-4853-B663-3EBB4E664553};Microsoft Visual C++ 2019 X86 Additional Runtime - 14.28.29617
{1350A46D-514D-4872-907C-D7E635141EFD};Microsoft Visual C++ 2019 X86 Minimum Runtime - 14.28.29715
{72092D54-764E-40E8-9EEE-95004D7A23CD};Microsoft Visual C++ 2019 X86 Additional Runtime - 14.28.29715
{00DC6825-CBC7-4179-AA10-829FA349A6B9};Microsoft Visual C++ 2019 X86 Minimum Runtime - 14.28.29805
{09A8B65F-2B67-4C5C-8FD8-D3EB60F4121D};Microsoft Visual C++ 2019 X86 Additional Runtime - 14.28.29805
{7C22F93B-954D-4C5C-BB17-E82779DFB215};Microsoft Visual C++ 2019 X86 Minimum Runtime - 14.28.29812
{1A170C53-DE36-4D51-A177-FE43B30E304B};Microsoft Visual C++ 2019 X86 Additional Runtime - 14.28.29812
{1110E034-017D-48D8-83B9-AF2A2BFDD385};Microsoft Visual C++ 2019 X86 Minimum Runtime - 14.28.29910
{6D7D03AB-CC57-4350-9451-EF33BF17FBB4};Microsoft Visual C++ 2019 X86 Additional Runtime - 14.28.29910
{6236EBBD-F50F-40B3-B819-8DB0C608308C};Microsoft Visual C++ 2019 X86 Minimum Runtime - 14.28.29913
{572DCD10-CF2E-43D1-8151-8BD9AC9086D0};Microsoft Visual C++ 2019 X86 Additional Runtime - 14.28.29913
{42365A3A-622A-4EED-A727-FE192A794AFD};Microsoft Visual C++ 2019 X86 Minimum Runtime - 14.28.29914
{BD8C6100-7C7D-48DD-93BA-69F6828213FE};Microsoft Visual C++ 2019 X86 Additional Runtime - 14.28.29914
{FF8C8F7D-1BDA-4D1D-92CF-C756A2722C1B};Microsoft Visual C++ 2019 X86 Minimum Runtime - 14.29.29917
{FCC30AAF-0D27-403D-AA35-5C6D94D682B6};Microsoft Visual C++ 2019 X86 Additional Runtime - 14.29.29917
{33969837-2AE8-4303-8940-A1E073682912};Microsoft Visual C++ 2019 X86 Minimum Runtime - 14.29.30024
{E6000D40-BF72-4450-903B-9F2D39E068D5};Microsoft Visual C++ 2019 X86 Additional Runtime - 14.29.30024
{B28398B7-6B7E-4D67-B035-DA69706CD282};Microsoft Visual C++ 2019 X86 Minimum Runtime - 14.29.30030
{F76A6112-6F7E-47D0-AB8B-E8C126DF3D7D};Microsoft Visual C++ 2019 X86 Additional Runtime - 14.29.30030
{34FDF8D7-E366-4773-BD4B-EB2705F665EC};Microsoft Visual C++ 2019 X86 Minimum Runtime - 14.29.30031
{224ECFA1-3EFD-4E14-A779-557CA153CF92};Microsoft Visual C++ 2019 X86 Additional Runtime - 14.29.30031
{A25632B6-B20B-4221-9E04-B9F741351837};Microsoft Visual C++ 2019 X86 Minimum Runtime - 14.29.30032
{BF5E8BD0-54D3-4493-A5E6-D6D4B0DE3AC4};Microsoft Visual C++ 2019 X86 Additional Runtime - 14.29.30032
{BA64D058-33E8-4BF2-B058-6617BB71D2F3};Microsoft Visual C++ 2019 X86 Minimum Runtime - 14.29.30034
{4939064B-C6A7-4AA2-84BF-F947951955F7};Microsoft Visual C++ 2019 X86 Additional Runtime - 14.29.30034
{3F8FC322-21C5-4CDA-A840-E40ECD1DAA6E};Microsoft Visual C++ 2019 X86 Minimum Runtime - 14.29.30035
{D8BDF076-BABB-46F8-AEDA-7A6DB1A90F49};Microsoft Visual C++ 2019 X86 Additional Runtime - 14.29.30035
{7D75664A-6C04-424C-82A1-EE88913E5F16};Microsoft Visual C++ 2019 X86 Minimum Runtime - 14.29.30037
{01FAEC41-B3BC-44F4-B185-5E8475AEB855};Microsoft Visual C++ 2019 X86 Additional Runtime - 14.29.30037
{E42108AD-89A2-4ECC-9206-B41EE965BD09};Microsoft Visual C++ 2019 X86 Minimum Runtime - 14.29.30038
{DE2CBB6F-39BB-4AF3-85BF-6FB03134C7CC};Microsoft Visual C++ 2019 X86 Additional Runtime - 14.29.30038
{C01EC318-B425-4E0A-8588-EBEC4D651D7B};Microsoft Visual C++ 2019 X86 Minimum Runtime - 14.29.30039
{2C2F7762-A41D-4D97-B251-EBC0159C5BE8};Microsoft Visual C++ 2019 X86 Additional Runtime - 14.29.30039
{3093CC12-EF27-4036-AD72-A759500271E9};Microsoft Visual C++ 2019 X86 Minimum Runtime - 14.29.30040
{EFC21A37-5640-4BE1-981A-2FD3EDA1D893};Microsoft Visual C++ 2019 X86 Additional Runtime - 14.29.30040
{829D861E-5F49-4B4C-BB2D-89CB098C183C};Microsoft Visual C++ 2019 X86 Minimum Runtime - 14.29.30129
{59F00D58-CCD4-480D-BAEA-C78A4E4A08C1};Microsoft Visual C++ 2019 X86 Additional Runtime - 14.29.30129
{664F72A5-21E2-427A-B78D-3BDE9A877E5B};Microsoft Visual C++ 2019 X86 Minimum Runtime - 14.29.30129
{8F31BD8A-96F6-4576-8282-C6F1886F9F8E};Microsoft Visual C++ 2019 X86 Additional Runtime - 14.29.30129
{B5E417DC-EB8F-4EBE-814A-54E0E0F22E86};Microsoft Visual C++ 2019 X86 Minimum Runtime - 14.29.30130
{65903554-0A65-4376-BCC0-63484BA17339};Microsoft Visual C++ 2019 X86 Additional Runtime - 14.29.30130
{EC9807DE-B577-47B1-A024-0251805ACF24};Microsoft Visual C++ 2019 X86 Minimum Runtime - 14.29.30133
{42667D2E-B054-46C1-9D46-2EE1332C14C1};Microsoft Visual C++ 2019 X86 Additional Runtime - 14.29.30133
{08B543CD-FAEF-4F08-8B89-11C484D78552};Microsoft Visual C++ 2019 X86 Minimum Runtime - 14.29.30134
{9E2AA84B-E603-4B95-BF87-BD7932923ABA};Microsoft Visual C++ 2019 X86 Additional Runtime - 14.29.30134
{36A1E79B-581A-4FE5-843D-84C2D3C9431E};Microsoft Visual C++ 2019 X86 Minimum Runtime - 14.29.30135
{77EB1EA9-8E1B-459D-8CDC-1984D0FF15B6};Microsoft Visual C++ 2019 X86 Additional Runtime - 14.29.30135
{1679EF65-55F3-4248-B91E-6B3BE1A69CDF};Microsoft Visual C++ 2019 X86 Minimum Runtime - 14.29.30139
{1AEA8854-7597-4CD3-948F-8DE364D94E07};Microsoft Visual C++ 2019 X86 Additional Runtime - 14.29.30139
{F51C74CC-1F7C-4746-821A-C6A599B23337};Microsoft Visual C++ 2022 X86 Minimum Runtime - 14.30.30401
{7756B4D5-BB42-42CC-9219-0102CFEBD794};Microsoft Visual C++ 2022 X86 Additional Runtime - 14.30.30401
{838C0A6F-E412-4FA2-8BDA-CC5AE02B4D88};Microsoft Visual C++ 2022 X86 Minimum Runtime - 14.30.30423
{652DA11E-F164-4730-A85D-68702595678D};Microsoft Visual C++ 2022 X86 Additional Runtime - 14.30.30423
{76EE50C2-B749-49FF-A512-1DFE6D67AA1C};Microsoft Visual C++ 2022 X86 Minimum Runtime - 14.30.30528
{32571C34-D349-4598-A97F-D621A3070FAB};Microsoft Visual C++ 2022 X86 Additional Runtime - 14.30.30528
{F6080405-9FA8-4CAA-9982-14E95D1A3DAC};Microsoft Visual C++ 2022 X86 Minimum Runtime - 14.30.30704
{BF08E976-B92E-4336-B56F-2171179476C4};Microsoft Visual C++ 2022 X86 Additional Runtime - 14.30.30704
{D436A6E9-EC92-40C9-BF09-1EF1D0ED8BCB};Microsoft Visual C++ 2022 X86 Minimum Runtime - 14.30.30708
{C27CC672-3095-4DA8-9805-9BB2A4065704};Microsoft Visual C++ 2022 X86 Additional Runtime - 14.30.30708
{74E37548-216C-435A-BE80-342047F976F8};Microsoft Visual C++ 2022 X86 Minimum Runtime - 14.31.30818
{AAC77C13-CA64-4C0F-81B3-FC5373C470D4};Microsoft Visual C++ 2022 X86 Additional Runtime - 14.31.30818
{4CA1C5EC-16E5-4438-9704-A4F6D84068C4};Microsoft Visual C++ 2022 X86 Minimum Runtime - 14.31.30919
{8681860E-E7D2-421A-A09E-7A6890CE62E5};Microsoft Visual C++ 2022 X86 Additional Runtime - 14.31.30919
{BE14CAD7-77DC-4A8F-9BE4-95FE70EC0852};Microsoft Visual C++ 2022 X86 Minimum Runtime - 14.31.31005
{1291D105-1BBC-4570-8EF8-5C4FA016F8C2};Microsoft Visual C++ 2022 X86 Additional Runtime - 14.31.31005
{799E3FFF-705C-461F-B400-6DE27398B3E5};Microsoft Visual C++ 2022 X86 Minimum Runtime - 14.31.31103
{5720EC03-F26F-40B7-980C-50B5D420B5DE};Microsoft Visual C++ 2022 X86 Additional Runtime - 14.31.31103
